.......................
----------------------------------------------------------------------
Ran 23 tests in 11.814s

OK
Name             Stmts   Miss Branch BrPart  Cover   Missing
------------------------------------------------------------
Collatz.py          31      0     12      0   100%
TestCollatz.py      96      0      2      0   100%
------------------------------------------------------------
TOTAL              127      0     14      0   100%
